<?xml version="1.0" standalone="no"?>
<!DOCTYPE svg PUBLIC "-//W3C//DTD SVG 20010904//EN"
 "http://www.w3.org/TR/2001/REC-SVG-20010904/DTD/svg10.dtd">
<svg version="1.0" xmlns="http://www.w3.org/2000/svg"
 width="1120.000000pt" height="1120.000000pt" viewBox="0 0 1120.000000 1120.000000"
 preserveAspectRatio="xMidYMid meet">
<metadata>
Created by potrace 1.11, written by Peter Selinger 2001-2013
</metadata>
<g transform="translate(0.000000,1120.000000) scale(0.100000,-0.100000)"
fill="#000000" stroke="none">
<path d="M8846 10153 c-1 -1 -465 -4 -1031 -7 -567 -2 -1037 -5 -1046 -5 -10
-1 -29 -24 -44 -53 -15 -29 -34 -61 -43 -70 -8 -10 -11 -18 -6 -18 5 0 4 -4
-1 -8 -6 -4 -22 -28 -35 -54 -14 -27 -28 -48 -32 -48 -5 0 -8 -9 -8 -20 0 -11
-4 -20 -9 -20 -5 0 -11 -8 -15 -17 -3 -10 -19 -40 -36 -68 -16 -27 -33 -57
-37 -65 -4 -8 -26 -46 -48 -85 -23 -38 -53 -90 -67 -115 -14 -25 -40 -72 -59
-105 -18 -33 -37 -61 -41 -63 -4 -2 -8 -12 -8 -23 0 -10 -4 -19 -9 -19 -5 0
-15 -16 -22 -35 -7 -19 -17 -35 -21 -35 -4 0 -8 -4 -8 -8 0 -5 -48 -92 -106
-193 -58 -101 -120 -209 -136 -239 -17 -30 -39 -67 -49 -81 -10 -14 -16 -29
-12 -33 3 -3 1 -6 -5 -6 -7 0 -12 -4 -12 -10 0 -5 -18 -39 -40 -75 -22 -36
-40 -69 -40 -74 0 -5 -6 -16 -12 -23 -7 -7 -24 -33 -37 -58 -43 -80 -46 -84
-58 -98 -7 -7 -13 -18 -13 -23 0 -5 -18 -38 -40 -74 -22 -36 -40 -70 -40 -75
0 -6 -3 -10 -8 -10 -4 0 -15 -17 -25 -37 -9 -21 -30 -60 -46 -88 -16 -27 -37
-65 -46 -83 -14 -26 -20 -30 -31 -21 -8 6 -14 18 -14 25 0 8 -3 14 -7 14 -5 0
-13 10 -19 23 -11 23 -167 292 -184 317 -6 8 -16 26 -22 40 -7 14 -25 44 -40
67 -15 23 -28 45 -28 48 0 4 -8 19 -19 33 -10 15 -29 47 -43 72 -61 109 -71
126 -84 141 -8 9 -11 19 -7 22 3 4 1 7 -6 7 -7 0 -9 5 -6 10 3 6 3 10 -2 10
-4 0 -19 21 -33 48 -13 26 -27 49 -31 52 -4 3 -15 22 -25 42 -11 20 -48 85
-83 145 -80 137 -101 172 -118 203 -8 14 -23 39 -33 55 -10 17 -31 52 -45 79
-42 77 -49 89 -60 101 -5 6 -19 29 -30 51 -11 21 -22 41 -25 44 -3 3 -11 16
-18 29 -41 72 -57 99 -73 126 -11 17 -26 45 -34 63 -8 17 -20 32 -25 32 -6 0
-10 7 -10 15 0 13 -14 38 -77 140 -7 11 -20 35 -29 53 -9 18 -21 35 -26 38 -5
3 -116 5 -246 4 -130 0 -671 -3 -1201 -6 -530 -2 -968 -7 -972 -10 -5 -3 -9 1
-9 8 0 8 -3 9 -8 3 -4 -6 -231 -10 -644 -10 -396 0 -638 -4 -638 -10 0 -5 -5
-4 -11 2 -6 6 -23 8 -44 3 -19 -4 -36 -6 -38 -4 -10 10 -47 12 -47 3 0 -6 -4
-7 -10 -4 -21 13 -8 -17 40 -98 28 -46 50 -89 50 -95 0 -7 5 -12 10 -12 6 0
10 -7 10 -15 0 -8 5 -15 10 -15 6 0 10 -5 10 -10 0 -6 21 -45 46 -88 25 -42
49 -84 54 -92 5 -8 29 -50 54 -93 25 -43 46 -82 46 -87 0 -6 5 -10 10 -10 6 0
10 -4 10 -9 0 -6 17 -38 37 -73 21 -35 47 -79 58 -99 101 -177 140 -245 145
-249 3 -3 18 -30 34 -60 16 -30 35 -62 42 -71 8 -9 11 -19 7 -22 -3 -4 -1 -7
5 -7 7 0 12 -4 12 -10 0 -5 18 -39 40 -75 22 -36 40 -67 40 -69 0 -2 18 -34
40 -70 22 -36 40 -70 40 -75 0 -6 6 -14 13 -18 6 -4 26 -35 43 -68 60 -114 69
-130 77 -133 4 -2 7 -10 7 -18 0 -8 5 -14 10 -14 6 0 10 -6 10 -14 0 -8 6 -21
13 -28 6 -7 21 -31 32 -53 11 -22 22 -42 25 -45 5 -5 14 -20 58 -99 14 -25 40
-70 59 -99 18 -29 33 -55 33 -58 0 -3 20 -39 45 -80 25 -40 45 -76 45 -79 0
-3 21 -37 47 -77 25 -40 45 -75 43 -77 -2 -1 2 -10 9 -20 18 -25 55 -85 56
-91 2 -12 68 -121 76 -126 5 -3 7 -10 4 -15 -4 -5 -1 -9 4 -9 6 0 11 -4 11
-10 0 -5 18 -39 40 -75 22 -36 40 -68 40 -71 0 -3 14 -25 30 -50 17 -24 27
-44 23 -44 -4 0 -3 -4 3 -8 6 -4 26 -34 44 -67 18 -33 52 -93 76 -132 24 -40
44 -77 44 -83 0 -5 4 -10 8 -10 4 0 13 -12 19 -27 7 -16 17 -35 22 -43 15 -23
131 -221 131 -225 0 -3 70 -123 90 -155 6 -8 19 -33 31 -55 12 -22 25 -42 28
-45 4 -3 13 -18 21 -35 15 -30 88 -157 118 -205 9 -14 15 -27 15 -30 0 -3 11
-23 26 -45 15 -22 33 -53 41 -70 8 -16 17 -32 20 -35 3 -3 32 -52 65 -110 32
-58 72 -124 87 -147 16 -24 26 -43 22 -43 -3 0 0 -7 7 -16 7 -9 18 -24 24 -34
5 -10 22 -40 37 -66 16 -25 28 -50 28 -55 0 -5 5 -9 10 -9 6 0 10 -4 10 -9 0
-5 48 -92 107 -193 58 -101 113 -196 121 -213 9 -16 18 -32 21 -35 3 -3 17
-25 30 -50 14 -25 50 -88 81 -140 71 -119 210 -362 229 -398 8 -15 18 -28 23
-30 4 -2 8 -8 8 -14 0 -6 20 -44 45 -85 25 -40 45 -78 45 -83 0 -5 6 -15 13
-22 7 -7 26 -38 42 -68 16 -30 34 -62 41 -70 6 -8 25 -40 42 -71 29 -55 43
-79 79 -136 10 -16 18 -30 18 -33 0 -3 16 -32 36 -65 20 -33 56 -94 80 -135
24 -41 49 -84 56 -95 7 -11 15 -26 19 -34 7 -14 55 -96 177 -306 38 -66 76
-131 84 -145 8 -14 27 -47 44 -75 16 -27 32 -58 35 -67 4 -10 10 -18 15 -18 5
0 9 -5 9 -11 0 -8 111 -204 180 -319 37 -61 74 -126 75 -130 1 -5 34 -60 63
-105 6 -11 15 -27 19 -35 3 -8 21 -38 38 -66 18 -28 36 -60 39 -72 4 -12 12
-22 17 -22 5 0 9 -4 9 -9 0 -10 69 -132 79 -141 3 -3 7 -9 8 -15 1 -5 26 -51
57 -102 30 -51 63 -107 72 -125 9 -18 21 -36 26 -39 5 -3 9 -9 9 -13 -2 -8 48
-96 67 -118 8 -10 12 -18 8 -18 -4 0 1 -12 12 -28 30 -41 122 -204 122 -214 0
-17 20 3 40 40 11 20 25 44 30 52 9 13 193 337 268 470 14 25 36 62 49 83 13
20 20 37 16 37 -5 0 -3 4 3 8 12 8 334 569 334 583 0 5 4 9 8 9 4 0 13 12 20
27 6 16 25 51 42 78 17 28 33 58 36 67 4 10 11 18 17 18 6 0 7 3 4 6 -3 4 2
18 13 32 11 13 17 28 14 33 -3 5 -1 9 4 9 5 0 17 15 26 33 9 17 27 50 41 72
14 22 28 47 32 55 3 8 17 32 30 53 13 20 20 37 16 37 -5 0 -3 4 3 8 10 6 24
29 73 121 8 14 17 28 20 31 4 3 18 28 32 55 15 28 68 122 119 210 50 88 104
180 118 205 14 25 35 61 46 81 12 20 43 77 71 125 27 49 54 96 60 105 5 9 21
36 35 60 13 24 29 52 35 61 5 9 25 45 44 80 18 35 39 66 45 70 6 4 7 8 2 8 -5
0 -2 8 6 18 12 14 85 141 146 252 7 14 22 39 32 55 11 17 23 37 27 45 3 8 17
32 30 53 13 20 20 37 16 37 -5 0 -3 4 3 8 8 6 132 216 205 350 11 20 29 51 39
67 10 17 25 41 32 55 42 77 133 236 138 240 3 3 12 19 20 35 8 17 19 33 25 37
5 4 6 8 2 8 -5 0 0 12 11 28 11 15 32 50 46 77 15 28 36 64 47 80 10 17 22 37
26 45 7 14 152 268 206 363 50 87 204 355 217 380 8 15 62 109 120 209 58 100
110 191 115 202 6 12 27 51 48 86 53 90 43 72 181 315 68 121 129 225 135 232
6 7 11 19 11 28 0 8 4 15 8 15 5 0 17 19 28 41 10 23 23 47 29 53 6 6 22 34
36 61 22 41 227 404 259 455 27 45 359 628 380 668 14 26 28 49 31 52 3 3 21
33 40 66 42 76 124 220 166 293 18 31 46 81 63 111 17 30 40 71 51 90 84 140
309 541 309 549 0 5 4 11 8 13 7 2 75 118 121 205 l12 23 -897 -3 c-492 -1
-896 -3 -898 -4z"/>
<path d="M8902 4846 c-12 -20 -22 -41 -22 -47 0 -5 -4 -9 -8 -9 -4 0 -18 -19
-30 -42 -12 -24 -33 -61 -47 -83 -14 -22 -31 -51 -38 -65 -6 -14 -14 -27 -17
-30 -4 -3 -41 -63 -84 -135 -42 -71 -81 -137 -86 -145 -73 -120 -140 -233
-140 -237 0 -3 -15 -28 -33 -56 -38 -61 -45 -73 -92 -152 -20 -33 -46 -76 -58
-96 -24 -38 -125 -208 -142 -237 -5 -10 -19 -33 -31 -52 -12 -19 -54 -91 -95
-160 -40 -69 -77 -126 -81 -128 -4 -2 -8 -8 -8 -12 0 -5 -88 -156 -197 -337
-108 -180 -201 -337 -207 -348 -10 -16 -47 -80 -116 -195 -5 -8 -31 -51 -58
-95 -27 -44 -52 -90 -56 -103 -4 -12 -11 -22 -15 -22 -4 0 -16 -18 -27 -40
-10 -22 -22 -40 -26 -40 -5 0 -8 -4 -8 -9 0 -8 -144 -254 -188 -321 -9 -14
-17 -27 -17 -30 0 -3 -17 -31 -38 -63 -20 -31 -37 -60 -37 -63 0 -3 -16 -29
-35 -58 -19 -29 -35 -56 -35 -59 0 -3 -12 -25 -27 -49 -38 -59 -50 -79 -67
-109 l-15 -25 2207 0 c1466 1 2206 4 2205 11 -1 8 -85 153 -138 240 -7 11 -12
24 -13 29 0 5 -4 12 -9 15 -5 3 -58 89 -117 191 -100 170 -163 276 -193 325
-35 58 -63 109 -63 116 0 5 -4 9 -10 9 -5 0 -10 5 -10 12 0 7 -11 28 -24 47
-13 20 -72 118 -131 218 l-107 183 -537 -1 c-295 0 -542 1 -549 1 -14 0 -8 12
48 105 17 28 38 65 47 83 9 17 20 32 25 32 4 0 8 5 8 10 0 6 35 70 79 143 43
73 120 201 170 285 50 84 91 157 91 163 0 5 4 9 8 9 5 0 16 15 25 34 15 33 15
35 -14 80 -16 26 -29 51 -29 56 0 6 -4 10 -10 10 -5 0 -10 6 -10 13 0 6 -18
40 -40 75 -22 34 -40 66 -40 71 0 4 -8 16 -18 27 -10 10 -24 34 -31 52 -7 17
-17 32 -22 32 -5 0 -9 4 -9 9 0 8 -40 79 -72 129 -10 15 -21 34 -25 42 -3 8
-39 70 -80 136 -40 67 -73 125 -73 128 0 4 -5 12 -10 19 -11 13 -96 154 -135
222 -44 79 -50 90 -55 95 -3 3 -16 25 -29 50 -14 25 -27 47 -31 50 -4 3 -17
25 -31 50 -13 25 -27 47 -30 50 -3 3 -8 11 -11 19 -2 9 -12 1 -26 -23z"/>
<path d="M2189 4828 c-13 -24 -28 -51 -34 -60 -5 -9 -28 -47 -49 -85 -22 -37
-43 -69 -48 -71 -4 -2 -8 -8 -8 -13 0 -6 -31 -62 -70 -125 -38 -64 -70 -118
-70 -120 0 -2 -16 -28 -35 -58 -19 -30 -35 -60 -35 -66 0 -5 -4 -10 -9 -10 -5
0 -11 -8 -15 -17 -3 -10 -14 -31 -23 -48 -30 -50 -147 -245 -158 -263 -5 -9
-41 -70 -80 -135 -38 -66 -80 -135 -92 -155 -13 -21 -32 -56 -44 -79 l-22 -41
28 -49 c16 -26 31 -50 34 -53 3 -3 13 -18 21 -35 8 -16 43 -76 78 -132 34 -57
62 -108 62 -113 0 -6 5 -10 10 -10 6 0 10 -4 10 -9 0 -5 22 -47 49 -93 28 -46
60 -101 73 -122 13 -22 33 -54 45 -73 12 -18 19 -33 15 -33 -4 0 -2 -4 4 -8
10 -6 32 -41 79 -125 9 -16 15 -31 12 -33 -2 -2 -249 -5 -548 -7 l-544 -2 -32
-55 c-18 -30 -37 -60 -43 -67 -5 -7 -10 -14 -10 -17 0 -2 -41 -73 -91 -158
-51 -84 -100 -166 -109 -183 -9 -16 -36 -60 -58 -98 -23 -37 -42 -72 -42 -77
0 -6 -4 -10 -10 -10 -5 0 -10 -4 -10 -10 0 -5 -32 -62 -71 -127 -39 -65 -75
-128 -80 -140 -5 -13 -13 -23 -19 -23 -6 0 -9 -4 -6 -9 3 -5 -1 -14 -9 -21 -8
-7 -15 -16 -15 -21 0 -5 -15 -32 -33 -62 -17 -29 -37 -61 -44 -72 -83 -138
-107 -181 -105 -187 1 -5 -3 -8 -8 -8 -6 0 -10 -7 -10 -15 0 -8 -5 -15 -11
-15 -5 0 -8 -4 -5 -8 6 -10 4399 -10 4406 0 5 7 -58 118 -75 130 -5 4 -6 8 -1
8 5 0 2 8 -6 18 -8 9 -28 40 -44 67 -30 53 -35 62 -99 169 -55 93 -55 93 -99
166 -22 36 -46 73 -54 83 -8 9 -12 17 -9 17 4 0 -13 30 -36 68 -24 37 -79 128
-122 202 -44 74 -83 137 -87 138 -4 2 -8 8 -8 12 0 5 -31 61 -70 125 -38 64
-70 120 -70 125 0 6 -3 10 -8 10 -7 0 -21 22 -44 73 -7 15 -16 27 -20 27 -4 0
-8 4 -8 9 0 5 -36 69 -80 142 -44 73 -80 136 -80 141 0 4 -4 8 -10 8 -5 0 -10
4 -10 10 0 5 -36 68 -80 141 -44 72 -80 133 -80 136 0 3 -13 25 -30 50 -16 24
-30 48 -30 54 0 5 -4 9 -10 9 -5 0 -10 4 -10 9 0 8 -213 370 -321 546 -11 17
-22 37 -26 45 -3 8 -17 29 -29 45 -12 17 -22 32 -22 35 1 3 -11 24 -25 47 -15
24 -27 47 -27 53 0 5 -4 10 -10 10 -5 0 -10 6 -10 14 0 8 -6 21 -12 28 -19 21
-37 50 -51 81 -6 15 -15 27 -19 27 -4 0 -8 4 -8 10 0 5 -18 38 -40 72 -22 35
-40 69 -40 76 0 6 -4 12 -8 12 -5 0 -16 15 -25 33 -20 37 -23 44 -141 240 -49
81 -92 147 -95 147 -4 0 -18 -19 -32 -42z"/>
</g>
</svg>
