<svg xmlns="http://www.w3.org/2000/svg" xmlns:xlink="http://www.w3.org/1999/xlink" width="181" height="165">
  <defs>
    <path id="a" d="M0 165h180.164V.804H0z"/>
  </defs>
  <g fill="none" fill-rule="evenodd">
    <path fill="#000" d="M19.0431 117.0945l-6.502 17.516-6.501-17.516h-6.04l10.055 25.048h4.832l10.055-25.048z"/>
    <g transform="translate(0 -.804)">
      <path fill="#000" d="M40.9292 138.1494c1.089 0 2.096-.201 3.02-.604.923-.402 1.711-.959 2.362-1.669.652-.711 1.161-1.534 1.528-2.47.367-.936.551-1.936.551-3.002v-.071c0-1.066-.184-2.073-.551-3.02-.367-.947-.888-1.776-1.563-2.487-.675-.71-1.474-1.273-2.398-1.688-.924-.414-1.931-.622-3.02-.622-1.114 0-2.126.202-3.038.605-.912.403-1.694.959-2.345 1.67-.651.71-1.16 1.533-1.527 2.468-.368.937-.551 1.937-.551 3.003v.071c0 1.066.183 2.073.551 3.02.367.947.888 1.776 1.563 2.486.675.711 1.468 1.274 2.38 1.689.912.414 1.924.621 3.038.621m-.071 5.045c-1.919 0-3.683-.337-5.294-1.013-1.611-.675-3.002-1.586-4.175-2.735-1.172-1.149-2.084-2.499-2.735-4.05-.652-1.552-.977-3.216-.977-4.992v-.071c0-1.777.331-3.44.995-4.992.662-1.551 1.581-2.914 2.753-4.086 1.172-1.172 2.57-2.096 4.192-2.771 1.623-.675 3.394-1.013 5.312-1.013 1.918 0 3.683.338 5.293 1.013 1.611.675 3.003 1.587 4.175 2.736 1.173 1.149 2.084 2.499 2.736 4.05.651 1.552.977 3.215.977 4.992v.071c0 1.776-.332 3.441-.995 4.992-.663 1.552-1.581 2.913-2.753 4.086-1.173 1.172-2.571 2.095-4.193 2.77-1.622.676-3.392 1.013-5.311 1.013m18.1193-25.296h5.471v19.932h12.4v4.938h-17.871z"/>
      <mask id="b" fill="#fff">
        <use xlink:href="#a"/>
      </mask>
      <path fill="#000" d="M81.218 142.768h5.472v-24.87h-5.472zm17.4798-19.8246h-7.567v-5.045h20.606v5.045h-7.567v19.825h-5.472zm17.4802 19.8246h5.472v-24.87h-5.472zm23.8396-4.6186c1.089 0 2.096-.201 3.02-.604.923-.402 1.711-.959 2.362-1.669.652-.711 1.161-1.534 1.528-2.47.367-.936.551-1.936.551-3.002v-.071c0-1.066-.184-2.073-.551-3.02-.367-.947-.888-1.776-1.563-2.487-.675-.71-1.474-1.273-2.398-1.688-.924-.414-1.931-.622-3.02-.622-1.114 0-2.126.202-3.038.605-.912.403-1.694.959-2.345 1.67-.651.71-1.16 1.533-1.527 2.468-.368.937-.551 1.937-.551 3.003v.071c0 1.066.183 2.073.551 3.02.367.947.888 1.776 1.563 2.486.675.711 1.468 1.274 2.38 1.689.912.414 1.924.621 3.038.621m-.071 5.045c-1.919 0-3.683-.337-5.294-1.013-1.611-.675-3.002-1.586-4.175-2.735-1.172-1.149-2.084-2.499-2.735-4.05-.652-1.552-.977-3.216-.977-4.992v-.071c0-1.777.331-3.44.995-4.992.662-1.551 1.581-2.914 2.753-4.086 1.172-1.172 2.57-2.096 4.192-2.771 1.623-.675 3.394-1.013 5.312-1.013 1.918 0 3.683.338 5.293 1.013 1.611.675 3.003 1.587 4.175 2.736 1.173 1.149 2.084 2.499 2.736 4.05.651 1.552.977 3.215.977 4.992v.071c0 1.776-.332 3.441-.995 4.992-.663 1.552-1.581 2.913-2.753 4.086-1.173 1.172-2.571 2.095-4.193 2.77-1.622.676-3.392 1.013-5.311 1.013m18.1188-25.296h5.045l11.653 15.313v-15.313h5.401v24.87h-4.655l-12.044-15.81v15.81h-5.4zM55.1162 162.3779c.606 0 1.082-.11 1.427-.33.344-.22.517-.562.517-1.025v-.037c0-.416-.16-.746-.482-.99-.32-.243-.838-.365-1.551-.365h-3.176v2.747h3.265zm-.731-5.03c.606 0 1.087-.105 1.444-.313.357-.208.536-.544.536-1.008v-.035c0-.416-.155-.734-.464-.955-.309-.22-.756-.33-1.338-.33h-2.712v2.641h2.534zm-5.209-5.048h5.787c1.436 0 2.522.368 3.258 1.105.57.572.855 1.279.855 2.123v.036c0 .357-.044.671-.133.945-.089.274-.207.52-.354.74-.148.221-.319.414-.515.58-.195.167-.404.31-.628.428.721.274 1.29.645 1.704 1.115.414.47.622 1.121.622 1.953v.036c0 .571-.11 1.071-.33 1.498-.22.428-.534.786-.944 1.071-.41.285-.902.499-1.478.642-.576.143-1.214.214-1.914.214h-5.93v-12.486zm17.4273-.0001h2.747v10.007h6.225v2.479h-8.972zm22.7603 7.2598l-1.659-4.05-1.658 4.05h3.317zm-2.89-7.35h2.534l5.351 12.577h-2.872l-1.142-2.801h-5.28l-1.141 2.801h-2.801l5.351-12.577zM106.6846 165c-.916 0-1.766-.167-2.551-.5-.784-.332-1.463-.787-2.033-1.364-.571-.576-1.017-1.258-1.338-2.042-.321-.785-.482-1.624-.482-2.516v-.035c0-.893.161-1.728.482-2.507.321-.778.767-1.463 1.338-2.051.57-.589 1.254-1.052 2.051-1.391.797-.339 1.677-.509 2.64-.509.582 0 1.115.048 1.597.144.481.094.918.225 1.311.391.392.167.755.369 1.088.607.333.238.642.5.927.785l-1.748 2.015c-.488-.439-.984-.785-1.489-1.034-.506-.25-1.074-.375-1.704-.375-.523 0-1.007.102-1.454.304-.446.202-.829.481-1.15.838-.321.357-.571.77-.749 1.24-.179.47-.268.972-.268 1.507v.036c0 .535.089 1.04.268 1.516.178.475.425.892.74 1.249.315.356.696.639 1.142.847.445.208.936.312 1.471.312.714 0 1.317-.131 1.811-.393.493-.261.984-.618 1.472-1.07l1.748 1.767c-.322.344-.655.654-.999.927-.346.274-.723.508-1.133.704-.41.197-.86.345-1.347.447-.488.1-1.035.151-1.641.151m11.8623-12.7002h2.747v5.458l5.066-5.458h3.318l-5.084 5.298 5.315 7.188h-3.299l-3.871-5.316-1.445 1.499v3.817h-2.747zM97.8242 79.3242l12.597-21.639 4.723 8.182-3.046 5.275h6.285l4.724 8.182h-25.283zm-37.192-52.762l23.003-.108 7.477 12.81 7.589-13.289 23.003-.109-30.527 53.458-30.545-52.762zm-1.443 52.762l4.723-8.182h6.286l-3.047-5.275 4.724-8.182 12.596 21.639h-25.282zM91.1482.8032c-28.719 0-52 23.282-52 52 0 28.719 23.281 52 52 52 28.718 0 52-23.281 52-52 0-28.718-23.282-52-52-52z" mask="url(#b)"/>
    </g>
  </g>
</svg>
